﻿{
  "profiles": {
    "ZELF.Sample.API:DEV": {
      "commandName": "Project",
      "launchBrowser": true,
      "applicationUrl": "http://localhost:5000",
      "environmentVariables": {
        "ASPNETCORE_ENVIRONMENT": "Development"
      }
    }
  }
}
